{
  "type": "service_account",
  "project_id": "atomus-50afc",
  "private_key_id": "7cb005be191eca8cb3ac485d95fc1fdb32f7c24c",
  "private_key": "-----BEGIN PRIVATE KEY-----\nMIIEvQIBADANBgkqhkiG9w0BAQEFAASCBKcwggSjAgEAAoIBAQDAoIIGo8YAFrV8\na7Ll75W1FohupWtGfsXUpEkUcTv1H0ZbepvEU2xuCnCnp9Wp+lLEX1s0gzPHvCKo\nCjddcucnOUKOKKDnvcVhgMENOB8Kxc7cm9vkSldiS4T+UnpTN4GGGH2jfv+IJFuY\n5BfOmnHT3HGEdccJGBLx7Ku2htDQmQ5gWtIMnBk5ebOrPtYAo+ajZIgmyQEQB8Ef\nFQDcY+0i5osTYLMjJzC3gcliNTYgbfWUV5kZelDycO69bqOTVm1HnmuxovLZ8zwn\nc4izZO5ZUPNU6tpA0GbsAeLKLsKPXenJ5x4kol3Ie9PtEPPXVyWi/aIz8Zmd7O+g\nZlF3CcU1AgMBAAECggEABLAjWfwEZp4m3pdUbEovb4/T1DWMbdPKBsnUyX2UAvw2\n3yUVw2pwWiFA6qOoDJH+D69ubdG/od3PTh2piUmxnH/FQeZ1PA6fTicvC55RCxcT\nWMUmTeENTWQfIX1qYroYGeZgsGj32R1haVAr0ChsGsbjsGCZbnw6gc7Lww526Iy2\nQBq2UMzFjlU7fSTV/v1200T+JmXGm2iVUvFWQzI7Y5/Uk+zsFifT4Eb3bUVGfHkP\nXr9Ja3GJTzGwCcG7164H4jjWxjRnXXbJk/FHfF9fy/i9KhyXYKAyTgpACf5DMxwz\nudHW5L0sL5Qr9dvl+hG3XOLf2s2QsGgSHpa5NNMiBQKBgQDi19dqro2XLw/1MRJk\n2VZt85b/9gde77booirfJEeC8soLPlUnpnPHOrTXa9VA+fPmN66sbf7YLKXNxxGV\n3MrJmvGpZMV53R8pwuqP9OdBzAHq64ujzBKWf8stbpavXfRTn1DormbQr4Cme1Wf\nEHVsGWfEvqJnsrdBoEvizg2WpwKBgQDZYs0qxrCOtBjhPuV6VH19tHySZmA1Rs49\nhP57g7VHYdTiGS2Ru/PEorRGgjgxN+JAL3QXukFo7R3pCVbbuw9SGWEAunWJYUcl\nDeMa04oBZtzk9vk3OUOF6XnyJhk/bn/DGnIkWxjlF6PHMyiouXLoyeiQoTgqDwpC\nhNz+OJRcwwKBgQCvuEF/u22lMmirJ/M2ugEwtSRAbQYyrYDD3nNVXZYjww1t/kAa\nsd838qsJwNd2OOmNaY7etWpXbOaXa+CcdWeFGoifDpfGmdq9D+eB0lWd63mE0Cfg\nn4G6oY3zSJpjiGVurZgQVqEAgSMoU5v01twO+/MdPgsyRwecR57hN3rhOwKBgDnE\nz9D2TCUgJxx0oncHzPGC7TfajOabkmM23InmTl5R2UjceAeqcvVmZ5H1OQmbWDzG\nX4uOq6M+oBw1pydtZnzi0axn4KRJfaaTMi8G2D3XIAyYtVG/nfoQOZ/oD/2TV9B5\nTqvqqYr35UYiikOMRMUoIu2MamiC5q8Wr8O/NW4RAoGAScR0H3HzWMlrh5bxW12r\nl53zWKKzEGlY6WINcAw06Cw7aXOgxp5CpgNKzE8aGATw3wLubyaLn1uKI4ss+muD\nsLdyRUGuX/LcDU7+cpq/d/c3V2SQ+9rVOY1vJPUv2LVW8hCY54kfNgyYieU6d8T2\nQ+x4NoIns5IROatd2vymOQ4=\n-----END PRIVATE KEY-----\n",
  "client_email": "firebase-adminsdk-9gwax@atomus-50afc.iam.gserviceaccount.com",
  "client_id": "100801373929277635948",
  "auth_uri": "https://accounts.google.com/o/oauth2/auth",
  "token_uri": "https://oauth2.googleapis.com/token",
  "auth_provider_x509_cert_url": "https://www.googleapis.com/oauth2/v1/certs",
  "client_x509_cert_url": "https://www.googleapis.com/robot/v1/metadata/x509/firebase-adminsdk-9gwax%40atomus-50afc.iam.gserviceaccount.com"
}
